<?xml version="1.0" standalone="no"?>
<!DOCTYPE svg PUBLIC "-//W3C//DTD SVG 1.1//EN" "http://www.w3.org/Graphics/SVG/1.1/DTD/svg11.dtd" >
<!--
2017-11-24: Created with FontForge (http://fontforge.org)
-->
<svg xmlns="http://www.w3.org/2000/svg" xmlns:xlink="http://www.w3.org/1999/xlink" version="1.1">
<metadata>
Created by FontForge 20160405 at Fri Nov 24 11:21:09 2017
 By Apache
Copyright (c) 2017, Apache
</metadata>
<defs>
<font id="Flaticon" horiz-adv-x="512" >
  <font-face 
    font-family="Flaticon"
    font-weight="400"
    font-stretch="normal"
    units-per-em="512"
    panose-1="2 0 5 3 0 0 0 0 0 0"
    ascent="448"
    descent="-64"
    bbox="-0.000976562 -64 512.001 448"
    underline-thickness="25.6"
    underline-position="-51.2"
    unicode-range="U+0020-F10F"
  />
    <missing-glyph />
    <glyph glyph-name="space" unicode=" " horiz-adv-x="200" 
 />
    <glyph glyph-name="uniF10D" unicode="&#xf10d;" 
d="M511.298 251.688c1.68164 -5.14941 0.31543 -10.8232 -3.7832 -14.6064l-115.174 -112.968l27.6377 -158.153c0.31543 -1.05078 0.420898 -2.10156 0.420898 -3.25781c0 -7.77637 -6.41016 -14.1865 -14.1865 -14.1865v0c-2.20703 0 -4.41406 0.525391 -6.51562 1.57617
l-143.021 74.7158l-142.602 -75.5566c-2.10156 -1.15527 -4.30859 -1.68066 -6.62012 -1.68066c-2.94238 0 -5.88477 0.945312 -8.30176 2.73145c-4.41309 3.15332 -6.62012 8.5127 -5.6748 13.8721l26.7969 159.1l-115.909 112.336
c-3.8877 3.67773 -5.35938 9.35254 -3.67773 14.502c1.68066 5.14941 6.09473 8.82715 11.4541 9.66797l159.73 23.749l70.9326 144.913c2.41699 4.93945 7.35547 7.98633 12.7148 7.98633v0c5.35938 0 10.2988 -3.04688 12.7158 -7.88086l71.8779 -144.493l159.73 -22.6982
c5.35938 -0.84082 9.77246 -4.51855 11.4541 -9.66797zM367.331 139.142l100.146 98.0449l-138.713 19.7568c-4.62402 0.735352 -8.61719 3.57227 -10.7188 7.77539l-62.4209 125.473l-61.5801 -125.787c-1.99707 -4.2041 -5.99023 -7.04102 -10.6143 -7.77637
l-138.607 -20.5967l100.462 -97.5195c3.3623 -3.25781 4.83398 -7.88184 4.09863 -12.5059l-23.2246 -138.188l123.791 65.5742c4.20312 2.10156 9.14258 2.20605 13.2412 0l124.211 -64.8379l-24.0645 137.977c-0.84082 4.62402 0.629883 9.35352 3.99316 12.6104z" />
    <glyph glyph-name="uniF108" unicode="&#xf108;" 
d="M254.145 172.12c-31.0654 0.530273 -56.1934 11.4512 -74.6426 32.3379c-40.8203 46.0156 -34.0342 124.898 -33.292 132.427c2.65039 56.9355 29.793 83.9727 52.0586 96.5898c22.1602 12.6172 45.2734 14.5254 57.042 14.5254h0.636719h0.423828h0.742188
c21.417 -0.423828 40.6084 -5.51367 57.042 -14.9492c22.0537 -12.6172 48.7725 -39.6543 51.4229 -96.166c0.742188 -7.52832 7.52734 -86.4111 -33.292 -132.427c-18.5547 -20.8867 -43.6836 -31.8076 -74.749 -32.3379h-1.05957h-0.636719h-1.69629zM174.519 334.234
c-0.105469 -0.636719 -7.31543 -73.0527 26.2949 -110.798c13.2529 -15.0557 31.1719 -22.4775 54.4971 -22.6895h0.530273v0h0.530273c23.4316 0.211914 41.2441 7.63379 54.6035 22.6895c33.7158 37.958 26.2939 110.056 26.1885 110.798
c-0.106445 0.211914 -0.106445 0.529297 -0.106445 0.847656c-3.28613 71.8857 -51.9521 83.5488 -80.5791 84.1846h-0.848633h-0.423828c-23.1143 0 -77.0811 -8.16406 -80.5801 -84.1846c0 -0.211914 -0.106445 -0.530273 -0.106445 -0.847656zM473.725 41.2842
c0.106445 -5.51367 0.211914 -33.8223 -5.08887 -47.9238c-1.06055 -2.75684 -3.0752 -5.08984 -5.51367 -6.67969c-3.18066 -2.01465 -79.4141 -50.6807 -206.963 -50.6807c-127.55 0 -203.782 48.5596 -206.963 50.6807
c-2.54492 1.58984 -4.45312 3.92285 -5.51367 6.67969c-5.61914 14.207 -5.51367 42.5166 -5.40723 48.0293v0.318359c0.106445 0.848633 0.106445 1.69629 0.106445 2.65039c0.635742 20.8877 2.01367 69.9775 48.0293 85.7754
c0.318359 0.106445 0.636719 0.211914 1.06055 0.318359c48.0293 12.1924 87.5771 39.7598 88.002 40.0771c6.4668 4.55957 15.373 2.96875 19.9326 -3.49805c4.55859 -6.46777 2.96875 -15.374 -3.49902 -19.9336c-1.80273 -1.16602 -44.001 -30.6416 -96.8018 -44.2129
c-24.7041 -8.7998 -27.4609 -35.2002 -28.2031 -59.374c0 -0.954102 -0.105469 -1.80273 -0.105469 -2.65137c-0.212891 -9.54199 0.529297 -24.2793 2.22656 -32.7617c17.2822 -9.75391 85.0322 -43.5762 187.029 -43.5762c102.422 0 169.748 33.7158 186.924 43.4707
c1.69727 8.48145 2.33301 23.2197 2.22656 32.7617c-0.105469 0.847656 -0.105469 1.69629 -0.105469 2.65039c-0.742188 24.1738 -3.49902 50.5742 -28.2031 59.375c-52.8008 13.5713 -94.999 42.9404 -96.8018 44.2129
c-6.46777 4.55859 -8.05762 13.4648 -3.49902 19.9326c4.55957 6.46777 13.4658 8.05762 19.9326 3.49902c0.424805 -0.318359 40.1846 -27.8848 88.002 -40.0781c0.318359 -0.105469 0.742188 -0.211914 1.06055 -0.318359
c46.0156 -15.6914 47.3936 -64.7812 48.0293 -85.7744c0 -0.954102 0.106445 -1.80273 0.106445 -2.65137v-0.317383z" />
    <glyph glyph-name="uniF10C" unicode="&#xf10c;" 
d="M489.891 284.098c10.4932 -13.4912 15.418 -27.7324 14.9902 -42.5088c-0.642578 -16.2754 -7.92383 -29.0166 -13.9199 -36.833c6.95996 -17.3457 9.74414 -44.543 -13.5986 -65.8506c-16.917 -15.5254 -45.9346 -22.4854 -85.9805 -20.5586
c-28.1602 1.28516 -51.7168 6.53223 -52.6797 6.74609h-0.107422c-5.46094 0.963867 -11.1357 2.1416 -16.918 3.42578c-0.427734 -6.85254 0.75 -23.877 13.3848 -62.21c14.9902 -45.6133 14.0264 -80.5195 -2.78418 -103.861
c-17.7744 -24.5195 -46.2559 -26.4473 -54.501 -26.4473c-8.1377 0 -15.418 3.31934 -20.665 9.42285c-11.7783 13.8125 -10.3857 39.2959 -8.99414 51.0742c-14.0264 37.9043 -53.6445 130.844 -87.2656 156.649c-0.642578 0.427734 -1.17773 0.962891 -1.71289 1.49902
c-9.85059 10.3857 -16.4893 21.6289 -20.9863 31.4795c-6.31738 -3.42676 -13.4912 -5.35352 -21.2012 -5.35352h-65.3145c-24.5205 0 -44.543 19.915 -44.543 44.542v173.996c0 24.5195 19.916 44.542 44.543 44.542h65.3145c9.53027 0 18.417 -2.99805 25.6982 -8.1377
l25.1621 2.99805c3.85449 0.536133 72.3818 9.20898 142.729 7.81641c34.9062 2.67773 63.709 1.71387 85.6592 -2.99805c32.7646 -6.95898 55.1436 -20.8789 66.6006 -41.4375c8.67285 -15.5254 8.67285 -31.1582 7.28125 -41.0088
c21.3076 -19.2734 25.0547 -40.4746 24.3057 -55.5713c-0.536133 -8.56641 -2.46289 -15.9541 -4.49707 -21.415zM116.951 209.574c8.67383 0 15.6328 6.95996 15.6328 15.6328v173.995c0 8.56543 -6.95898 15.6328 -15.6328 15.6328h-65.3145
c-8.56641 0 -15.6328 -6.95996 -15.6328 -15.6328v-173.995c0 -8.56641 6.95996 -15.6328 15.6328 -15.6328h65.3145zM461.408 199.188c-3.85449 5.99609 -2.89062 13.8125 2.46289 18.417c0.75 0.642578 11.5645 11.1357 11.9922 25.1621
c0.321289 9.42285 -4.17578 19.0596 -13.3838 28.6963c-4.60449 4.81836 -5.46094 11.8848 -1.92773 17.4531c1.92773 3.42578 16.4893 31.1582 -15.2041 54.9287c-5.13965 3.85449 -7.17383 10.3867 -4.92578 16.3828c0.321289 1.28418 4.49707 14.8828 -3.10449 28.0527
c-7.28125 12.7422 -23.1279 21.7363 -47.1133 26.876c-19.3799 4.17578 -45.6133 4.9248 -78.0566 2.35547h-1.49902c-68.8486 1.49902 -138.554 -7.49512 -139.196 -7.60254h-0.107422l-10.8145 -1.28418c0.642578 -2.99805 0.963867 -6.21094 0.963867 -9.42285v-173.889
c0 -4.60352 -0.749023 -9.10059 -2.03418 -13.2764c1.92773 -7.17383 7.3877 -23.1279 19.916 -36.7266c48.0762 -38.1182 95.0811 -166.821 97.1162 -172.282c0.749023 -2.35547 0.962891 -4.81836 0.641602 -7.17383
c-1.92676 -12.0996 -1.17773 -26.7686 1.39258 -31.0518c5.78223 0.107422 20.9863 1.71289 30.1943 14.4551c10.9219 15.0977 10.4932 42.0801 -1.28418 77.8428c-17.8818 54.501 -19.4873 83.1963 -5.24707 95.8311c7.06738 6.31738 16.4893 6.63867 23.3418 4.17578
c6.4248 -1.3916 12.7422 -2.67676 18.6309 -3.74707c0.536133 -0.107422 0.963867 -0.213867 1.39258 -0.321289c32.8711 -7.28125 91.7627 -11.5645 112.214 7.06641c7.49512 6.85352 10.2783 15.0977 8.67285 25.0557c-1.28516 8.03027 -5.0332 13.9199 -5.0332 14.0264z
" />
    <glyph glyph-name="uniF104" unicode="&#xf104;" 
d="M504.441 288.794c4.72363 -2.41504 7.55859 -7.24414 7.55859 -12.4932v-166.922c0 -66.9795 -54.4863 -121.36 -121.359 -121.36c-7.87402 0 -14.1729 6.29883 -14.1729 14.1729s6.29883 14.1729 14.1729 14.1729c51.3359 0 93.0137 41.7832 93.0137 93.0146v157.999
c-17.1113 7.76855 -62.1494 26.1406 -126.504 37.2686c-5.56348 0.944336 -10.0781 5.14355 -11.3379 10.708l-5.24902 22.5713c-5.24902 22.3613 -24.8809 37.8984 -47.7666 37.8984h-73.5938c-22.9902 0 -42.5176 -15.6426 -47.7666 -37.8984l-5.24902 -22.5713
c-1.25977 -5.45898 -5.77441 -9.76367 -11.3379 -10.708c-64.5645 -11.1279 -109.497 -29.5 -126.504 -37.2686v-157.999c0 -51.3369 41.7822 -93.0146 93.0137 -93.0146c7.87402 0 14.1729 -6.29883 14.1729 -14.1729s-6.29883 -14.1729 -14.1729 -14.1729
c-66.9785 0 -121.359 54.4863 -121.359 121.36v166.922c0 5.24902 2.93945 10.0781 7.55859 12.4932c2.09961 1.15527 51.2314 26.7705 133.118 42.0977l3.14941 13.4385c8.29395 35.2734 39.2637 59.8398 75.377 59.8398h73.5938
c36.2188 0 67.1885 -24.6709 75.377 -59.8398l3.14941 -13.4385c81.8867 -15.4316 131.019 -40.9424 133.118 -42.0977zM46.4023 317.77c-5.87891 0 -11.4434 3.7793 -13.543 9.7627c-2.41406 7.34863 1.5752 15.4326 9.02832 17.8477
c15.748 5.14355 32.2305 9.7627 48.9219 13.752c7.55957 1.78516 15.2227 -2.83398 17.0078 -10.498c1.78418 -7.55859 -2.83496 -15.2227 -10.499 -17.0068c-15.957 -3.7793 -31.5996 -8.18848 -46.5068 -13.123c-1.46973 -0.524414 -2.93945 -0.734375 -4.40918 -0.734375
zM256.053 306.221c89.9697 0 163.143 -73.2773 163.143 -163.248c0 -89.9697 -73.1729 -163.143 -163.143 -163.143c-89.9707 0 -163.144 73.2783 -163.144 163.248s73.1729 163.143 163.144 163.143zM256.053 8.17578c74.3271 0 134.798 60.5742 134.798 134.902
s-60.4707 134.798 -134.798 134.798c-74.3281 0 -134.798 -60.5752 -134.798 -134.903c0 -74.3271 60.4697 -134.797 134.798 -134.797z" />
    <glyph glyph-name="uniF10F" unicode="&#xf10f;" 
d="M420.908 19.4873c6.55957 0 11.875 -5.31543 11.875 -11.876c0 -6.55957 -5.31543 -11.875 -11.875 -11.875h-409.033c-6.55957 0 -11.875 5.31543 -11.875 11.875v289.559c0 6.55957 5.31543 11.875 11.875 11.875s11.875 -5.31543 11.875 -11.875v-277.683h397.158z
M500.125 388.262c6.55957 0 11.875 -5.31543 11.875 -11.875v-289.559c0 -6.55957 -5.31543 -11.875 -11.875 -11.875h-409.033c-6.55957 0 -11.875 5.31543 -11.875 11.875v289.559c0 6.55957 5.31543 11.875 11.875 11.875h409.033zM488.25 98.7051v265.807h-385.283
v-265.807h385.283zM187.742 115.96c-6.55762 0 -11.875 5.31543 -11.876 11.877v0.880859c0 40.6621 24.6719 76.6064 61.4229 91.6562c-1.64551 5.48828 -2.54199 11.2959 -2.54199 17.3125v35.6162c0 33.2881 27.084 60.3701 60.3701 60.3701h0.980469
c33.2881 0 60.3701 -27.083 60.3701 -60.3701v-35.6162c0 -6.0166 -0.896484 -11.8262 -2.54297 -17.3135c36.7529 -15.0488 61.4229 -50.9844 61.4229 -91.6572v-0.879883c0 -6.56055 -5.31543 -11.876 -11.875 -11.876s-11.875 5.31543 -11.875 11.876v0.879883
c0 31.7529 -19.7705 59.708 -48.9531 70.5684c-11.0811 -13.4092 -27.833 -21.9688 -46.5469 -21.9688h-0.980469c-18.7129 0 -35.4648 8.55957 -46.5469 21.9688c-29.1797 -10.8613 -48.9521 -38.8203 -48.9521 -70.5684v-0.879883
c0 -6.56055 -5.31543 -11.876 -11.876 -11.876zM258.499 273.301v-35.6152c0 -6.63477 1.7832 -12.8555 4.87988 -18.2275c0.0283203 -0.0478516 0.0537109 -0.0986328 0.0839844 -0.147461c6.35059 -10.8984 18.1582 -18.2451 31.6562 -18.2451h0.980469
c13.083 0 24.5791 6.90332 31.0566 17.252c0.294922 0.618164 0.643555 1.19531 1.0293 1.74219c2.88672 5.23145 4.5332 11.2402 4.5332 17.626v35.6152c0 20.1924 -16.4268 36.6201 -36.6191 36.6201h-0.980469c-20.1924 0 -36.6201 -16.4277 -36.6201 -36.6201z" />
    <glyph glyph-name="uniF105" unicode="&#xf105;" 
d="M247.328 -34.6621c8.04102 0 14.6689 -6.51953 14.6689 -14.6689s-6.51953 -14.6689 -14.6689 -14.6689h-133.542c-52.373 0 -95.0762 42.5938 -95.0762 95.0762v321.848c0 52.373 42.5938 95.0762 95.0762 95.0762h135.715c8.14941 0 14.6689 -6.51953 14.6689 -14.6689
s-6.51953 -14.6689 -14.6689 -14.6689h-135.715c-36.1836 0 -65.7383 -29.4463 -65.7383 -65.7383v-321.848c0 -36.1836 29.4463 -65.7383 65.7383 -65.7383h133.542zM488.985 202.322c5.75879 -5.65039 5.75879 -14.9941 -0.109375 -20.8623l-93.2285 -93.2295
c-2.8252 -2.93359 -6.62891 -4.3457 -10.3232 -4.3457s-7.49707 1.52148 -10.3223 4.3457c-5.75879 5.75977 -5.75879 14.9951 0 20.7539l68.2373 68.2383h-297.616c-8.14941 0 -14.6689 6.51953 -14.6689 14.6689s6.51953 14.6689 14.6689 14.6689h297.616
l-68.2373 68.2373c-5.75879 5.75879 -5.75879 14.9951 0 20.7539s14.9951 5.75879 20.7539 0z" />
    <glyph glyph-name="uniF101" unicode="&#xf101;" 
d="M436.978 372.942c48.3584 -48.3584 74.9502 -112.693 74.9502 -180.996s-26.5918 -132.638 -74.9502 -180.996s-112.586 -74.9502 -180.996 -74.9502c-42.4609 0 -84.1719 10.5078 -121.271 30.4521c-27.5566 -18.9795 -60.582 -29.8086 -91.999 -29.8086v0
c-6.32617 0 -12.4385 0.536133 -18.1211 1.39355c-10.4004 1.6084 -18.335 9.65039 -19.9434 20.0508c-1.50195 10.2939 3.75293 20.373 13.0811 24.9844c15.2256 7.50488 28.8438 23.1602 40.3164 46.6426c-83.0996 101.006 -76.3438 250.049 16.9414 343.335
c48.3594 48.3584 112.587 74.9502 180.996 74.9502c68.4102 0 132.638 -26.6992 180.996 -75.0576zM416.498 31.4307c88.5674 88.46 88.5674 232.571 0 321.246c-42.8906 42.8906 -99.8271 66.4795 -160.517 66.4795c-60.582 0 -117.626 -23.5889 -160.516 -66.4795
c-84.708 -84.708 -88.8896 -221.312 -9.54297 -310.953c3.75293 -4.28906 4.71777 -10.293 2.46582 -15.4404c-12.1162 -27.7705 -26.5918 -47.7148 -43.8545 -60.582c14.4746 0.322266 47.5 4.0752 80.3115 29.4873c2.57324 1.92969 5.79004 3.00195 8.89941 3.00195
c2.46582 0 5.04004 -0.75 7.29102 -2.03711c34.6338 -20.373 74.4141 -31.2021 114.945 -31.2021c60.583 0 117.626 23.5889 160.517 66.4795zM320.96 309.251c23.0537 0 44.8203 -9.00684 61.2256 -25.4131c16.2988 -16.4053 25.3057 -38.1719 25.3057 -61.332
c0 -23.0537 -9.00684 -44.8203 -25.4131 -61.2256l-116.018 -115.589c-2.78711 -2.78809 -6.54004 -4.18164 -10.1855 -4.18164c-3.64648 0 -7.39941 1.50098 -10.1865 4.28906l-115.696 115.695c-16.2979 16.4053 -25.4121 38.0654 -25.4121 61.2256
c-0.107422 23.0537 8.89941 44.8203 25.3047 61.2256c16.2988 16.2988 38.0654 25.3057 61.1182 25.3057c23.1611 0 44.9277 -9.00684 61.333 -25.4131l3.64551 -3.64551l3.64551 3.64551c16.4062 16.4062 38.1729 25.4131 61.333 25.4131zM361.599 181.76
c10.9365 10.9375 16.9414 25.4121 16.9414 40.8525c0.107422 15.334 -5.89746 29.8086 -16.834 40.7461c-10.9375 10.9365 -25.4131 16.9414 -40.7461 16.9414c-15.4404 0 -29.916 -6.00488 -40.8525 -16.9414l-13.832 -13.832
c-5.68262 -5.68262 -14.7969 -5.68262 -20.4805 0l-13.9385 13.9395c-10.9375 10.9365 -25.4131 16.9414 -40.8535 16.9414s-29.915 -6.00488 -40.7451 -16.834c-10.8301 -10.8301 -16.834 -25.3057 -16.834 -40.7461s6.00391 -29.916 16.9414 -40.8525l105.51 -105.51z" />
    <glyph glyph-name="uniF100" unicode="&#xf100;" 
d="M474.302 260.83c20.8955 0 37.9062 -16.9062 37.6963 -37.6963v-58.4873c0 -20.8955 -17.0107 -37.9062 -37.9062 -37.9062h-6.19531c-11.4453 -31.1865 -31.1865 -59.7471 -57.332 -83.1631c-0.209961 -0.314453 -0.419922 -0.524414 -0.735352 -0.734375
c-0.104492 -0.105469 -0.104492 -0.105469 -0.209961 -0.210938c-0.945312 -0.839844 -1.99512 -1.67969 -2.93945 -2.51953c-19.8457 -18.0605 -21.5264 -38.9561 -21.6309 -43.3662v-19.1113c0 -14.9102 -12.0762 -26.9854 -26.9863 -26.9854h-78.2275
c-14.9111 0 -26.9863 12.0752 -26.9863 26.9854v3.15039c-11.2354 -0.525391 -22.4707 -0.419922 -33.6006 0.419922v-3.57031c0 -14.9102 -12.0762 -26.9854 -26.9863 -26.9854h-78.2275c-13.4404 0 -24.6758 9.97461 -26.6709 22.9951
c-0.209961 1.05078 -0.31543 2.10059 -0.31543 3.25586v0.734375v5.45996c-0.524414 11.1309 -4.2002 38.8516 -25.4111 60.6924c-15.3301 15.8555 -28.9805 36.4365 -40.4258 61.0078c-6.8252 13.5449 -12.1807 27.7207 -15.751 42.2109l-0.104492 0.525391
c-0.105469 0.209961 -0.105469 0.524414 -0.209961 0.839844c-3.46582 14.3857 -5.14551 29.0859 -5.14551 43.7861c0 56.9121 25.2012 110.359 70.9824 150.365c45.2568 39.4814 105.214 61.3223 168.951 61.3223c9.97559 0 20.0557 -0.629883 29.9258 -1.67969
c3.99023 -0.31543 25.3057 -1.89062 42.1064 -7.14062c13.9658 16.2754 37.2764 33.3916 75.6025 38.1162c1.15527 0.105469 2.41504 0.209961 3.57031 0.209961c10.1855 0 19.6357 -5.56445 24.6758 -14.5947c5.04004 -9.13574 4.72559 -19.8457 -0.839844 -28.7715
c-9.97559 -15.751 -12.916 -30.9756 -9.03027 -45.0469c27.7207 -23.415 48.5117 -52.291 60.9023 -84.1074h7.45508zM391.139 405.104l-1.88965 14.0713l1.78418 -14.0713v0v0.105469l0.105469 -0.105469c-0.105469 0 -0.105469 0 0 0zM483.856 164.542h0.105469v58.1719
c0 5.25 -4.30469 9.55469 -9.55566 9.55469h-17.2207h-0.209961c-6.08984 0 -11.5498 3.99023 -13.4404 9.76562c-10.5 32.0264 -31.0811 61.1123 -59.4316 84.0029c-3.15039 2.625 -5.14551 6.51074 -5.25 10.6055c-6.19531 21.9453 -1.99512 45.4668 12.1797 68.1475
c-35.0703 -4.30566 -53.3418 -21.4209 -62.4766 -34.9668c-4.0957 -5.98438 -12.0752 -7.97949 -18.4805 -4.51465c-8.71582 4.72559 -30.5566 7.77051 -42.3164 8.50488c-0.209961 0.105469 -0.420898 0.105469 -0.630859 0.105469
c-8.9248 0.945312 -18.0605 1.46973 -27.0908 1.46973c-116.659 0 -211.582 -82.2178 -211.582 -183.336c0 -12.6006 1.5752 -25.3057 4.51465 -37.6963v-0.209961c0 -0.105469 0.105469 -0.209961 0.105469 -0.31543c3.04492 -12.4951 7.66504 -24.6758 13.6504 -36.3311
c0 -0.209961 0.105469 -0.31543 0.209961 -0.525391c10.0801 -21.8408 21.9463 -39.7959 35.1768 -53.4463c28.2451 -29.0859 32.7607 -65.3125 33.3906 -79.4883v-0.629883v-4.51465h75.498v17.9551c0 4.0957 1.78516 7.98047 4.83008 10.7109
c3.04492 2.625 7.13965 3.88477 11.2354 3.35938c10.8154 -1.46973 21.8408 -2.20508 32.8662 -2.20508c8.50488 0 17.1152 0.419922 25.7256 1.36523c3.88477 0.419922 7.98047 -0.839844 10.9209 -3.57031c3.04492 -2.625 4.72461 -6.50977 4.72461 -10.5v-17.1152
h75.6025v17.9551v0.31543c0.209961 8.61035 3.04492 38.5361 31.0811 63.9473c0.105469 0.104492 0.209961 0.209961 0.31543 0.314453c0.945312 0.839844 1.88965 1.68066 2.83496 2.52051l0.105469 0.104492c0.104492 0.105469 0.104492 0.105469 0.209961 0.209961
c25.3057 22.5762 43.6807 50.5068 52.9219 80.748c1.78418 5.87988 7.34961 9.97559 13.5449 9.97559h16.3809c5.25 0 9.55469 4.30469 9.55469 9.55566z" />
    <glyph glyph-name="uniF107" unicode="&#xf107;" 
d="M509.236 404.575l2.74316 -131.615c0.637695 -28.2627 -13.7803 -48.9326 -22.0742 -58.5664l-130.212 -130.212c-1.40332 -2.10547 -2.74316 -3.44531 -4.14648 -4.84863l-133.656 -132.956c-6.89062 -6.88965 -15.8867 -10.335 -25.5195 -10.335v0
c-9.69727 0 -18.6299 3.44531 -25.5195 10.335l-160.517 160.517c-13.7812 13.7793 -13.7812 37.1934 0 50.9746l271.462 272.162l0.701172 0.702148c9.63379 8.29395 26.1572 17.2256 50.2734 17.2256h1.40332l139.207 -2.74414h1.40332
c21.373 -2.04102 33.75 -17.2246 34.4512 -40.6387zM471.34 232.32c5.4873 6.18848 15.1201 20.6709 15.0566 40.001l-2.74316 131.616c-0.701172 12.377 -5.5498 15.1201 -11.0361 15.8213l-139.846 2.74316c-15.8223 0 -26.8604 -6.1875 -33.0479 -11.0361
l-271.461 -271.462c-4.14648 -4.14648 -4.14648 -11.0371 0 -15.1836l160.517 -160.579c4.14648 -4.14746 11.0371 -4.14746 15.1836 0l133.656 133.083c0.702148 0.636719 0.702148 1.33887 1.40332 2.04102c0 0.637695 0.702148 1.33887 1.4043 2.04102zM394.146 379.056
c26.8584 0 48.2314 -21.3721 48.2314 -48.2314c0 -26.8584 -21.373 -48.2314 -48.2314 -48.2314c-26.8594 0 -48.2324 21.373 -48.2324 48.2314c0 26.8594 21.373 48.2314 48.2324 48.2314zM394.146 308.112c12.376 0 22.7119 10.335 22.7119 22.7119
s-10.335 22.7119 -22.7119 22.7119c-12.3779 0 -22.7129 -10.335 -22.7129 -22.7119s10.335 -22.7119 22.7129 -22.7119zM303.169 182.686c4.84863 -4.84863 4.84863 -13.0791 0 -17.9277l-106.799 -106.798c-2.74316 -2.74316 -5.48633 -3.44531 -8.93164 -3.44531
c-3.44629 0 -6.18848 1.4043 -8.93262 3.44531c-4.84863 4.84863 -4.84863 13.0791 0 17.9277l106.798 106.798c4.78613 4.84863 13.0801 4.84863 17.8652 0zM289.389 257.074l-146.098 -146.099c-2.74316 -2.74316 -5.48633 -3.44434 -8.93262 -3.44434
c-3.44531 0 -6.1875 1.40332 -8.93164 3.44434c-4.84863 4.84863 -4.84863 13.0791 0 17.9277l146.099 146.098c4.84863 4.84863 13.0781 4.84863 17.9277 0c4.78418 -4.78418 4.78418 -12.376 -0.0644531 -17.9268z" />
    <glyph glyph-name="uniF10E" unicode="&#xf10e;" 
d="M489.917 99.9209c2.03418 -5.45996 3.96191 -12.8477 4.38965 -21.5205c0.75 -14.9893 -2.99805 -36.2959 -24.3037 -55.5684c1.3916 -9.84961 1.3916 -25.375 -7.28125 -41.0068c-11.3486 -20.4502 -33.7266 -34.3691 -66.4893 -41.3281
c-13.9189 -2.99805 -30.6211 -4.49707 -49.7861 -4.49707c-11.1357 0 -23.127 0.535156 -35.8682 1.49902c-70.3438 -1.3916 -138.867 7.28027 -142.722 7.81543l-25.1611 2.99805c-7.28125 -5.13867 -16.168 -8.13672 -25.6963 -8.13672h-65.3115
c-24.5186 0 -44.541 19.915 -44.541 44.54v173.986c0 24.5186 19.915 44.54 44.541 44.54h65.3115c7.70898 0 14.8818 -1.92773 21.1992 -5.35352c4.49707 9.85059 11.1348 21.0928 20.9854 31.4785c0.535156 0.535156 1.07031 1.07031 1.71289 1.49902
c33.5127 25.8027 73.1279 118.738 87.2607 156.641c-1.49902 11.7773 -2.89062 37.2598 8.99414 51.0713c5.24609 6.10254 12.6338 9.42188 20.6641 9.42188c8.35059 0 36.7236 -1.92676 54.4971 -26.4463c16.917 -23.3408 17.7734 -58.2451 2.78418 -103.855
c-12.6338 -38.3311 -13.8115 -55.3545 -13.3838 -62.207c5.78223 1.28516 11.4561 2.46289 16.8096 3.42676h0.107422c0.963867 0.213867 24.5186 5.45996 52.6777 6.74512c40.043 1.92676 68.9521 -5.03223 85.9756 -20.5576
c23.2334 -21.1992 20.5566 -48.502 13.5977 -65.8467c5.99609 -7.81543 13.2764 -20.5566 13.9189 -36.8311c0.642578 -14.7754 -4.38965 -29.123 -14.8828 -42.5068zM51.6875 -30.916v0.107422h65.3115c8.56543 0 15.6318 6.95898 15.6318 15.6318v173.985
c0 8.56543 -6.95996 15.6318 -15.6318 15.6318h-65.3115c-8.56543 0 -15.6318 -6.95898 -15.6318 -15.6318v-174.093c0 -8.56543 6.95898 -15.6318 15.6318 -15.6318zM462.508 112.448c9.31445 9.63672 13.8115 19.3799 13.3838 28.9082
c-0.536133 14.2402 -11.7783 24.8398 -11.8848 24.9473c-5.35352 4.81836 -6.53125 12.6338 -2.56934 18.6299c1.3916 2.24805 13.7041 23.2334 -3.64062 39.0801c-20.4502 18.6299 -79.3379 14.2402 -112.208 7.06641
c-0.427734 -0.107422 -0.962891 -0.213867 -1.3916 -0.321289c-5.88867 -0.963867 -12.0986 -2.24902 -18.6299 -3.74707c-6.85254 -2.46289 -16.2744 -2.1416 -23.3408 4.1748c-14.2402 12.6348 -12.7412 41.3291 5.24609 95.8262
c11.7783 35.7607 12.2061 62.7422 1.28516 77.8389c-9.20801 12.7412 -24.5186 14.3467 -30.1934 14.4541c-2.56934 -4.38965 -3.21191 -19.0576 -1.3916 -31.0498c0.427734 -2.46289 0.213867 -4.9248 -0.642578 -7.17383
c-2.03418 -5.56738 -49.0371 -134.156 -97.1104 -172.272c-12.6348 -13.5977 -17.9883 -29.5508 -19.915 -36.7246c1.28516 -4.17578 2.03418 -8.67188 2.03418 -13.2764v-174.093c0 -3.21191 -0.321289 -6.42383 -0.963867 -9.42188l10.8145 -1.28516h0.106445
c0.75 -0.106445 70.3438 -9.10059 139.189 -7.60156h1.49805c32.335 -2.56934 58.6738 -1.82031 78.0527 2.35547c24.1982 5.13965 40.1514 14.3477 47.3242 27.1953c7.49512 13.3838 2.8916 27.5166 2.8916 27.624c-2.1416 5.99512 -0.107422 12.6338 4.9248 16.4883
c14.1328 10.5996 20.8779 23.0195 20.1289 37.0459c-0.535156 10.2783 -4.92578 17.7734 -4.92578 17.8799c-3.42578 5.56738 -2.56934 12.7412 1.92773 17.4521z" />
    <glyph glyph-name="uniF10B" unicode="&#xf10b;" 
d="M507.273 215.844c5.79199 -5.26562 6.31836 -14.2168 1.26367 -20.1133c-2.84277 -3.16016 -6.73926 -4.73926 -10.6357 -4.73926c-3.37012 0 -6.73926 1.1582 -9.47754 3.58008l-43.3867 38.8584v-87.9316v-35.8037v-117.103
c0 -25.168 -15.7959 -44.8604 -35.8047 -44.8604h-76.0312c-18.5342 0 -33.5938 15.0586 -33.5938 33.5928v127.738c0 2.84277 -2.31641 5.15918 -5.16016 5.15918h-76.7686c-2.84375 0 -5.16016 -2.31641 -5.16016 -5.15918v-127.738
c0 -18.5342 -15.0586 -33.5928 -33.5928 -33.5928h-74.3477h-0.841797h-0.842773c-19.7979 0 -35.8047 16.1113 -35.8047 35.8047v131.213v112.468v7.58203l-43.3867 -38.8584c-2.7373 -2.42188 -6.10742 -3.58008 -9.47754 -3.58008
c-3.89648 0 -7.79199 1.5791 -10.6357 4.73828c-5.16016 5.89746 -4.73926 14.8486 1.1582 20.1143l240.943 215.459c5.58105 4.94922 14.0059 4.73828 19.2715 -0.316406c0.526367 -0.31543 0.947266 -0.631836 1.36914 -1.05273zM416.499 145.604v0v113.311
l-161.226 144.166l-159.856 -142.797v-32.9609v-112.469v-131.317c0 -4.10742 3.37012 -7.37207 7.37109 -7.37207h0.842773h0.842773h74.3467c2.84277 0 5.16016 2.31738 5.16016 5.16016v127.738c0 18.5332 15.0586 33.5928 33.5928 33.5928h76.7695
c18.5342 0 33.5928 -15.0596 33.5928 -33.5928v-127.527c0 -2.84375 2.31641 -5.16016 5.16016 -5.16016h76.0312c2.31738 0 7.37207 6.21289 7.37207 16.4277v116.996v35.8047z" />
    <glyph glyph-name="uniF106" unicode="&#xf106;" 
d="M256 448c141.16 0 256 -114.84 256 -256s-114.84 -256 -256 -256s-256 114.84 -256 256s114.84 256 256 256zM256 -32c123.512 0 224 100.488 224 224s-100.488 224 -224 224s-224 -100.488 -224 -224s100.488 -224 224 -224zM129.44 277.112
c0 19.166 15.5371 34.7041 34.7031 34.7041c19.167 0 34.7041 -15.5381 34.7041 -34.7041c0 -19.167 -15.5371 -34.7041 -34.7041 -34.7041c-19.166 0 -34.7031 15.5371 -34.7031 34.7041zM313.136 277.112c0 19.166 15.5381 34.7041 34.7041 34.7041
c19.167 0 34.7041 -15.5381 34.7041 -34.7041c0 -19.167 -15.5371 -34.7041 -34.7041 -34.7041c-19.166 0 -34.7041 15.5371 -34.7041 34.7041zM420.328 155.456c8.47168 -2.53613 13.2803 -11.4561 10.752 -19.9043c-0.360352 -1.19141 -37.0156 -118.424 -175.08 -118.424
s-174.72 117.232 -175.08 118.416c-2.52832 8.45605 2.28027 17.376 10.752 19.9121c8.36035 2.51172 17.3281 -2.24805 19.8877 -10.6885c1.20801 -3.90332 30.6885 -95.6396 144.44 -95.6396c114.512 0 144.144 94.624 144.424 95.5762
c2.52832 8.45605 11.4805 13.2803 19.9043 10.752z" />
    <glyph glyph-name="uniF109" unicode="&#xf109;" 
d="M470.645 375.274c26.8105 -26.8096 41.4639 -62.4121 41.3555 -100.294c0 -37.8809 -14.7617 -73.4834 -41.5723 -100.294l-204.278 -203.519c-2.82227 -2.82227 -6.62109 -4.2334 -10.3115 -4.2334s-7.48926 1.51953 -10.3115 4.3418l-203.845 203.845
c-26.8105 26.8105 -41.6807 62.3037 -41.6807 100.186c-0.108398 37.8818 14.6533 73.4834 41.4639 100.294c26.7012 26.7012 62.3037 41.4639 100.077 41.4639c37.8809 0 73.5918 -14.8711 100.402 -41.6807l14.2188 -14.2197l14.002 14.002
c26.8105 26.8105 62.4131 41.5723 100.295 41.5723c37.8809 0 73.375 -14.6533 100.185 -41.4639zM449.805 195.419c21.2744 21.2744 32.9971 49.4951 32.8887 79.5615c0 30.0664 -11.6143 58.2881 -32.8887 79.5625c-21.2744 21.166 -49.4961 32.8887 -79.4541 32.8887
s-58.2871 -11.7227 -79.5615 -32.9971l-24.3145 -24.3135c-5.75195 -5.75293 -14.9785 -5.75293 -20.7314 0l-24.5303 24.5303c-21.2754 21.2744 -49.6045 32.9971 -79.6709 32.9971c-29.958 0 -58.1797 -11.7227 -79.3457 -32.8887
c-21.2744 -21.165 -32.8887 -49.3867 -32.8887 -79.4531s11.7227 -58.2881 32.9971 -79.5625l193.533 -193.532z" />
    <glyph glyph-name="uniF10A" unicode="&#xf10a;" 
d="M478.836 414.833c21.3818 -21.2725 33.1641 -49.6367 33.1641 -79.8555c0 -30.2178 -11.7822 -58.582 -33.1641 -79.9639l-293.02 -292.91c-2.72754 -2.83691 -6.54492 -4.36426 -10.3633 -4.36426s-7.63672 1.63672 -10.3643 4.36426l-118.037 118.037
l-15.1631 -112.146l77.6729 10.4727c8.07324 1.09082 15.4912 -4.58105 16.582 -12.6543s-4.58203 -15.4912 -12.6543 -16.582l-96.874 -13.0908c-0.654297 -0.109375 -1.30859 -0.109375 -1.96289 -0.109375c-3.81836 0 -7.63672 1.63672 -10.3643 4.36426
c-3.16309 3.16309 -4.7998 7.74512 -4.14551 12.3271l21.71 160.801c0.435547 3.16309 1.85449 6.10938 4.14551 8.40039l293.02 292.91c44.0723 44.1816 115.746 44.1816 159.818 0zM324.69 378.833l-267.384 -267.384l49.2002 -49.2002l267.384 267.384zM175.562 -6.69629
l267.384 267.383l-48.1094 48.1094l-267.384 -267.383zM463.454 281.741c12.3271 14.9453 19.0908 33.4912 19.0908 53.2363c0 22.3643 -8.61816 43.4189 -24.4365 59.1279c-15.8174 15.709 -36.7637 24.4365 -59.127 24.4365
c-19.6367 0 -38.291 -6.76367 -53.2373 -19.0908z" />
    <glyph glyph-name="uniF103" unicode="&#xf103;" 
d="M512 189.698c0 -0.986328 -0.109375 -1.97266 -0.329102 -2.95898c0.219727 -0.985352 0.329102 -1.97168 0.329102 -2.95801v-121.206c0 -68.4932 -55.7812 -124.273 -124.274 -124.273c-8.21875 0 -14.7939 6.5752 -14.7939 14.7939v218.85
c0 8.21875 6.5752 14.7939 14.7939 14.7939c37.918 0 71.8906 -16.9854 94.6855 -43.835v40.877c0 0.986328 0.109375 1.97266 0.328125 2.95801c-0.21875 0.986328 -0.328125 1.97266 -0.328125 2.95898c0 124.822 -101.589 226.411 -226.411 226.411
s-226.411 -101.589 -226.411 -226.411v-40.876c22.7949 26.8486 56.7676 43.835 94.6855 43.835c8.21875 0 14.7939 -6.5752 14.7939 -14.7939v-218.85c0 -8.21875 -6.5752 -14.7949 -14.7939 -14.7949c-68.4932 0 -124.274 55.7812 -124.274 124.274v121.205
c0 68.3838 26.6299 132.713 74.959 181.041c48.3291 48.3291 112.657 74.959 181.041 74.959s132.712 -26.6299 181.041 -74.959c48.3291 -48.3281 74.959 -112.657 74.959 -181.041zM109.37 161.973c-45.1514 -7.12305 -79.7812 -46.3564 -79.8906 -93.4795
c0 -47.123 34.7393 -86.3564 79.8906 -93.4795v186.959zM402.63 -30.9043c45.1514 7.12305 79.7812 46.2471 79.8906 93.4795c0 47.123 -34.7393 86.3564 -79.8906 93.4795v-186.959z" />
    <glyph glyph-name="uniF102" unicode="&#xf102;" 
d="M486.939 335.222v-0.106445v-238.504c0 -18.7754 -9.33398 -36.0488 -26.2861 -48.8164c-15.7715 -11.8018 -36.3711 -18.3467 -58.2578 -18.3467s-42.4863 6.54492 -58.2578 18.3467c-16.9512 12.7676 -26.2852 30.041 -26.2852 48.8164
s9.33398 36.0488 26.2852 48.8164c15.7715 11.8018 36.4785 18.3467 58.2578 18.3467c20.5996 0 40.2334 -5.79395 55.5762 -16.415v168.015l-263.824 -83.9004v-228.311c0 -18.7754 -9.33398 -36.0488 -26.2852 -48.8164
c-15.7715 -11.8018 -36.3711 -18.3467 -58.2578 -18.3467s-42.4863 6.54492 -58.2578 18.3467c-16.9521 12.7676 -26.2861 30.041 -26.2861 48.8164s9.33398 36.0488 26.2861 48.8164c15.7715 11.8018 36.4775 18.3467 58.2578 18.3467
c20.5996 0 40.2334 -5.79395 55.5752 -16.416v188.078v0.107422v98.3838c0 6.33008 4.07715 11.9092 10.085 13.8398l292.792 93.0195c4.39844 1.39453 9.22656 0.537109 12.9814 -2.14551c3.64844 -2.68262 5.90137 -7.08105 5.90137 -11.6943v-98.2773zM109.604 -35.0322
c30.1475 0 55.5752 17.3809 55.5752 38.1953c0 20.707 -25.4277 38.1943 -55.5752 38.1943c-30.1484 0 -55.5762 -17.4873 -55.5762 -38.1943s25.4277 -38.1953 55.5762 -38.1953zM194.147 261.943l263.824 83.793v68.0215l-263.824 -83.793v-68.0215zM402.503 58.417
c30.041 0 55.4688 17.4873 55.5762 38.1943c0 20.707 -25.4277 38.1953 -55.5762 38.1953s-55.5752 -17.4883 -55.5752 -38.1953s25.4268 -38.1943 55.5752 -38.1943z" />
  </font>
</defs></svg>
